name,domain_authority
agriculturenutrition.com,1
agriculturecorner.com,1
agriculturetraditional.org,1
selfagriculture.com,8
homesteadagriculture.com,1
redlandagriculture.com,1
redlandsagriculture.com,1
2agriculturee.com,1
